{
  "members":[
    {
      "name": "Wahyu",
      "position": "Project Leader"
    },
    {
      "name": "Ilman",
      "position": "Sophomore"
    },
    {
      "name": "Danny",
      "position": "Junior Member"
    }
  ]
}